simulation/qsim/nco_sin_gen.msim.vcd
$comment
	File created using the following command:
		vcd file nco_sin_gen.msim.vcd -direction
$end
$date
	Thu Dec 20 13:17:40 2018
$end
$version
	ModelSim Version 10.5b
$end
$timescale
	1ps
$end

$scope module nco_sin_gen_vlg_vec_tst $end
$var reg 1 ! i_clk $end
$var reg 4 " sw [3:0] $end
$var wire 1 # dac_in [13] $end
$var wire 1 $ dac_in [12] $end
$var wire 1 % dac_in [11] $end
$var wire 1 & dac_in [10] $end
$var wire 1 ' dac_in [9] $end
$var wire 1 ( dac_in [8] $end
$var wire 1 ) dac_in [7] $end
$var wire 1 * dac_in [6] $end
$var wire 1 + dac_in [5] $end
$var wire 1 , dac_in [4] $end
$var wire 1 - dac_in [3] $end
$var wire 1 . dac_in [2] $end
$var wire 1 / dac_in [1] $end
$var wire 1 0 dac_in [0] $end
$var wire 1 1 i_clk_to_dac $end

$scope module i1 $end
$var wire 1 2 gnd $end
$var wire 1 3 vcc $end
$var wire 1 4 unknown $end
$var tri1 1 5 devclrn $end
$var tri1 1 6 devpor $end
$var tri1 1 7 devoe $end
$var wire 1 8 i_clk_to_dac~output_o $end
$var wire 1 9 i_clk_to_dac~0 $end
$var wire 1 : dac_in[0]~output_o $end
$var wire 1 ; dac_in[1]~output_o $end
$var wire 1 < dac_in[2]~output_o $end
$var wire 1 = dac_in[3]~output_o $end
$var wire 1 > dac_in[4]~output_o $end
$var wire 1 ? dac_in[5]~output_o $end
$var wire 1 @ dac_in[6]~output_o $end
$var wire 1 A dac_in[7]~output_o $end
$var wire 1 B dac_in[8]~output_o $end
$var wire 1 C dac_in[9]~output_o $end
$var wire 1 D dac_in[10]~output_o $end
$var wire 1 E dac_in[11]~output_o $end
$var wire 1 F dac_in[12]~output_o $end
$var wire 1 G dac_in[13]~output_o $end
$var wire 1 H i_clk~input_o $end
$var wire 1 I i_clk~inputclkctrl_outclk $end
$var wire 1 J sw[3]~input_o $end
$var wire 1 K sw[2]~input_o $end
$var wire 1 L i_ctrl_word[24]~feeder_combout $end
$var wire 1 M sw[1]~input_o $end
$var wire 1 N sw[0]~input_o $end
$var wire 1 O Add0~1_sumout $end
$var wire 1 P Add0~2 $end
$var wire 1 Q Add0~5_sumout $end
$var wire 1 R Add0~6 $end
$var wire 1 S Add0~9_sumout $end
$var wire 1 T Add0~10 $end
$var wire 1 U Add0~13_sumout $end
$var wire 1 V Add0~14 $end
$var wire 1 W Add0~17_sumout $end
$var wire 1 X Add0~18 $end
$var wire 1 Y Add0~21_sumout $end
$var wire 1 Z Add0~22 $end
$var wire 1 [ Add0~25_sumout $end
$var wire 1 \ Add0~26 $end
$var wire 1 ] Add0~29_sumout $end
$var wire 1 ^ Add0~30 $end
$var wire 1 _ Add0~33_sumout $end
$var wire 1 ` Add0~34 $end
$var wire 1 a Add0~37_sumout $end
$var wire 1 b sine_rom_rtl_0|auto_generated|address_reg_a[1]~feeder_combout $end
$var wire 1 c ~GND~combout $end
$var wire 1 d sine_rom_rtl_0|auto_generated|ram_block1a16~portadataout $end
$var wire 1 e sine_rom_rtl_0|auto_generated|ram_block1a48~portadataout $end
$var wire 1 f sine_rom_rtl_0|auto_generated|ram_block1a32~portadataout $end
$var wire 1 g sine_rom_rtl_0|auto_generated|ram_block1a0~portadataout $end
$var wire 1 h sine_rom_rtl_0|auto_generated|mux2|l2_w0_n0_mux_dataout~0_combout $end
$var wire 1 i sine_rom_rtl_0|auto_generated|ram_block1a17 $end
$var wire 1 j sine_rom_rtl_0|auto_generated|ram_block1a1 $end
$var wire 1 k sine_rom_rtl_0|auto_generated|ram_block1a33 $end
$var wire 1 l sine_rom_rtl_0|auto_generated|ram_block1a49 $end
$var wire 1 m sine_rom_rtl_0|auto_generated|mux2|l2_w1_n0_mux_dataout~0_combout $end
$var wire 1 n sine_rom_rtl_0|auto_generated|ram_block1a34 $end
$var wire 1 o sine_rom_rtl_0|auto_generated|ram_block1a2 $end
$var wire 1 p sine_rom_rtl_0|auto_generated|ram_block1a18 $end
$var wire 1 q sine_rom_rtl_0|auto_generated|ram_block1a50 $end
$var wire 1 r sine_rom_rtl_0|auto_generated|mux2|l2_w2_n0_mux_dataout~0_combout $end
$var wire 1 s sine_rom_rtl_0|auto_generated|ram_block1a35 $end
$var wire 1 t sine_rom_rtl_0|auto_generated|ram_block1a3 $end
$var wire 1 u sine_rom_rtl_0|auto_generated|ram_block1a51 $end
$var wire 1 v sine_rom_rtl_0|auto_generated|ram_block1a19 $end
$var wire 1 w sine_rom_rtl_0|auto_generated|mux2|l2_w3_n0_mux_dataout~0_combout $end
$var wire 1 x sine_rom_rtl_0|auto_generated|ram_block1a20 $end
$var wire 1 y sine_rom_rtl_0|auto_generated|ram_block1a4 $end
$var wire 1 z sine_rom_rtl_0|auto_generated|ram_block1a36 $end
$var wire 1 { sine_rom_rtl_0|auto_generated|ram_block1a52 $end
$var wire 1 | sine_rom_rtl_0|auto_generated|mux2|l2_w4_n0_mux_dataout~0_combout $end
$var wire 1 } sine_rom_rtl_0|auto_generated|ram_block1a37 $end
$var wire 1 ~ sine_rom_rtl_0|auto_generated|ram_block1a21 $end
$var wire 1 !! sine_rom_rtl_0|auto_generated|ram_block1a5 $end
$var wire 1 "! sine_rom_rtl_0|auto_generated|ram_block1a53 $end
$var wire 1 #! sine_rom_rtl_0|auto_generated|mux2|l2_w5_n0_mux_dataout~0_combout $end
$var wire 1 $! sine_rom_rtl_0|auto_generated|ram_block1a6 $end
$var wire 1 %! sine_rom_rtl_0|auto_generated|ram_block1a22 $end
$var wire 1 &! sine_rom_rtl_0|auto_generated|ram_block1a54 $end
$var wire 1 '! sine_rom_rtl_0|auto_generated|ram_block1a38 $end
$var wire 1 (! sine_rom_rtl_0|auto_generated|mux2|l2_w6_n0_mux_dataout~0_combout $end
$var wire 1 )! sine_rom_rtl_0|auto_generated|ram_block1a23 $end
$var wire 1 *! sine_rom_rtl_0|auto_generated|ram_block1a7 $end
$var wire 1 +! sine_rom_rtl_0|auto_generated|ram_block1a39 $end
$var wire 1 ,! sine_rom_rtl_0|auto_generated|ram_block1a55 $end
$var wire 1 -! sine_rom_rtl_0|auto_generated|mux2|l2_w7_n0_mux_dataout~0_combout $end
$var wire 1 .! sine_rom_rtl_0|auto_generated|ram_block1a8 $end
$var wire 1 /! sine_rom_rtl_0|auto_generated|ram_block1a24 $end
$var wire 1 0! sine_rom_rtl_0|auto_generated|ram_block1a40 $end
$var wire 1 1! sine_rom_rtl_0|auto_generated|ram_block1a56 $end
$var wire 1 2! sine_rom_rtl_0|auto_generated|mux2|l2_w8_n0_mux_dataout~0_combout $end
$var wire 1 3! sine_rom_rtl_0|auto_generated|ram_block1a57~portadataout $end
$var wire 1 4! sine_rom_rtl_0|auto_generated|ram_block1a25~portadataout $end
$var wire 1 5! sine_rom_rtl_0|auto_generated|ram_block1a41~portadataout $end
$var wire 1 6! sine_rom_rtl_0|auto_generated|ram_block1a9~portadataout $end
$var wire 1 7! sine_rom_rtl_0|auto_generated|mux2|l2_w9_n0_mux_dataout~0_combout $end
$var wire 1 8! sine_rom_rtl_0|auto_generated|ram_block1a42 $end
$var wire 1 9! sine_rom_rtl_0|auto_generated|ram_block1a26 $end
$var wire 1 :! sine_rom_rtl_0|auto_generated|ram_block1a58 $end
$var wire 1 ;! sine_rom_rtl_0|auto_generated|ram_block1a10 $end
$var wire 1 <! sine_rom_rtl_0|auto_generated|mux2|l2_w10_n0_mux_dataout~0_combout $end
$var wire 1 =! sine_rom_rtl_0|auto_generated|ram_block1a59 $end
$var wire 1 >! sine_rom_rtl_0|auto_generated|ram_block1a27 $end
$var wire 1 ?! sine_rom_rtl_0|auto_generated|ram_block1a43 $end
$var wire 1 @! sine_rom_rtl_0|auto_generated|ram_block1a11 $end
$var wire 1 A! sine_rom_rtl_0|auto_generated|mux2|l2_w11_n0_mux_dataout~0_combout $end
$var wire 1 B! sine_rom_rtl_0|auto_generated|ram_block1a28 $end
$var wire 1 C! sine_rom_rtl_0|auto_generated|ram_block1a60 $end
$var wire 1 D! sine_rom_rtl_0|auto_generated|ram_block1a44 $end
$var wire 1 E! sine_rom_rtl_0|auto_generated|ram_block1a12 $end
$var wire 1 F! sine_rom_rtl_0|auto_generated|mux2|l2_w12_n0_mux_dataout~0_combout $end
$var wire 1 G! sine_rom_rtl_0|auto_generated|ram_block1a45 $end
$var wire 1 H! sine_rom_rtl_0|auto_generated|ram_block1a29 $end
$var wire 1 I! sine_rom_rtl_0|auto_generated|ram_block1a61 $end
$var wire 1 J! sine_rom_rtl_0|auto_generated|ram_block1a13 $end
$var wire 1 K! sine_rom_rtl_0|auto_generated|mux2|l2_w13_n0_mux_dataout~0_combout $end
$var wire 1 L! sine_rom_rtl_0|auto_generated|rden_decode|w_anode238w [2] $end
$var wire 1 M! sine_rom_rtl_0|auto_generated|rden_decode|w_anode238w [1] $end
$var wire 1 N! sine_rom_rtl_0|auto_generated|rden_decode|w_anode238w [0] $end
$var wire 1 O! sine_rom_rtl_0|auto_generated|address_reg_a [1] $end
$var wire 1 P! sine_rom_rtl_0|auto_generated|address_reg_a [0] $end
$var wire 1 Q! sine_rom_rtl_0|auto_generated|rden_decode|w_anode252w [2] $end
$var wire 1 R! sine_rom_rtl_0|auto_generated|rden_decode|w_anode252w [1] $end
$var wire 1 S! sine_rom_rtl_0|auto_generated|rden_decode|w_anode252w [0] $end
$var wire 1 T! cnt [31] $end
$var wire 1 U! cnt [30] $end
$var wire 1 V! cnt [29] $end
$var wire 1 W! cnt [28] $end
$var wire 1 X! cnt [27] $end
$var wire 1 Y! cnt [26] $end
$var wire 1 Z! cnt [25] $end
$var wire 1 [! cnt [24] $end
$var wire 1 \! cnt [23] $end
$var wire 1 ]! cnt [22] $end
$var wire 1 ^! cnt [21] $end
$var wire 1 _! cnt [20] $end
$var wire 1 `! cnt [19] $end
$var wire 1 a! cnt [18] $end
$var wire 1 b! cnt [17] $end
$var wire 1 c! cnt [16] $end
$var wire 1 d! cnt [15] $end
$var wire 1 e! cnt [14] $end
$var wire 1 f! cnt [13] $end
$var wire 1 g! cnt [12] $end
$var wire 1 h! cnt [11] $end
$var wire 1 i! cnt [10] $end
$var wire 1 j! cnt [9] $end
$var wire 1 k! cnt [8] $end
$var wire 1 l! cnt [7] $end
$var wire 1 m! cnt [6] $end
$var wire 1 n! cnt [5] $end
$var wire 1 o! cnt [4] $end
$var wire 1 p! cnt [3] $end
$var wire 1 q! cnt [2] $end
$var wire 1 r! cnt [1] $end
$var wire 1 s! cnt [0] $end
$var wire 1 t! i_ctrl_word [31] $end
$var wire 1 u! i_ctrl_word [30] $end
$var wire 1 v! i_ctrl_word [29] $end
$var wire 1 w! i_ctrl_word [28] $end
$var wire 1 x! i_ctrl_word [27] $end
$var wire 1 y! i_ctrl_word [26] $end
$var wire 1 z! i_ctrl_word [25] $end
$var wire 1 {! i_ctrl_word [24] $end
$var wire 1 |! i_ctrl_word [23] $end
$var wire 1 }! i_ctrl_word [22] $end
$var wire 1 ~! i_ctrl_word [21] $end
$var wire 1 !" i_ctrl_word [20] $end
$var wire 1 "" i_ctrl_word [19] $end
$var wire 1 #" i_ctrl_word [18] $end
$var wire 1 $" i_ctrl_word [17] $end
$var wire 1 %" i_ctrl_word [16] $end
$var wire 1 &" i_ctrl_word [15] $end
$var wire 1 '" i_ctrl_word [14] $end
$var wire 1 (" i_ctrl_word [13] $end
$var wire 1 )" i_ctrl_word [12] $end
$var wire 1 *" i_ctrl_word [11] $end
$var wire 1 +" i_ctrl_word [10] $end
$var wire 1 ," i_ctrl_word [9] $end
$var wire 1 -" i_ctrl_word [8] $end
$var wire 1 ." i_ctrl_word [7] $end
$var wire 1 /" i_ctrl_word [6] $end
$var wire 1 0" i_ctrl_word [5] $end
$var wire 1 1" i_ctrl_word [4] $end
$var wire 1 2" i_ctrl_word [3] $end
$var wire 1 3" i_ctrl_word [2] $end
$var wire 1 4" i_ctrl_word [1] $end
$var wire 1 5" i_ctrl_word [0] $end
$var wire 1 6" sine_rom_rtl_0|auto_generated|rden_decode|w_anode261w [2] $end
$var wire 1 7" sine_rom_rtl_0|auto_generated|rden_decode|w_anode261w [1] $end
$var wire 1 8" sine_rom_rtl_0|auto_generated|rden_decode|w_anode261w [0] $end
$var wire 1 9" sine_rom_rtl_0|auto_generated|rden_decode|w_anode270w [2] $end
$var wire 1 :" sine_rom_rtl_0|auto_generated|rden_decode|w_anode270w [1] $end
$var wire 1 ;" sine_rom_rtl_0|auto_generated|rden_decode|w_anode270w [0] $end
$var wire 1 <" sine_rom_rtl_0|auto_generated|ram_block1a0_PORTADATAOUT_bus [8] $end
$var wire 1 =" sine_rom_rtl_0|auto_generated|ram_block1a0_PORTADATAOUT_bus [7] $end
$var wire 1 >" sine_rom_rtl_0|auto_generated|ram_block1a0_PORTADATAOUT_bus [6] $end
$var wire 1 ?" sine_rom_rtl_0|auto_generated|ram_block1a0_PORTADATAOUT_bus [5] $end
$var wire 1 @" sine_rom_rtl_0|auto_generated|ram_block1a0_PORTADATAOUT_bus [4] $end
$var wire 1 A" sine_rom_rtl_0|auto_generated|ram_block1a0_PORTADATAOUT_bus [3] $end
$var wire 1 B" sine_rom_rtl_0|auto_generated|ram_block1a0_PORTADATAOUT_bus [2] $end
$var wire 1 C" sine_rom_rtl_0|auto_generated|ram_block1a0_PORTADATAOUT_bus [1] $end
$var wire 1 D" sine_rom_rtl_0|auto_generated|ram_block1a0_PORTADATAOUT_bus [0] $end
$var wire 1 E" sine_rom_rtl_0|auto_generated|ram_block1a16_PORTADATAOUT_bus [8] $end
$var wire 1 F" sine_rom_rtl_0|auto_generated|ram_block1a16_PORTADATAOUT_bus [7] $end
$var wire 1 G" sine_rom_rtl_0|auto_generated|ram_block1a16_PORTADATAOUT_bus [6] $end
$var wire 1 H" sine_rom_rtl_0|auto_generated|ram_block1a16_PORTADATAOUT_bus [5] $end
$var wire 1 I" sine_rom_rtl_0|auto_generated|ram_block1a16_PORTADATAOUT_bus [4] $end
$var wire 1 J" sine_rom_rtl_0|auto_generated|ram_block1a16_PORTADATAOUT_bus [3] $end
$var wire 1 K" sine_rom_rtl_0|auto_generated|ram_block1a16_PORTADATAOUT_bus [2] $end
$var wire 1 L" sine_rom_rtl_0|auto_generated|ram_block1a16_PORTADATAOUT_bus [1] $end
$var wire 1 M" sine_rom_rtl_0|auto_generated|ram_block1a16_PORTADATAOUT_bus [0] $end
$var wire 1 N" sine_rom_rtl_0|auto_generated|ram_block1a32_PORTADATAOUT_bus [8] $end
$var wire 1 O" sine_rom_rtl_0|auto_generated|ram_block1a32_PORTADATAOUT_bus [7] $end
$var wire 1 P" sine_rom_rtl_0|auto_generated|ram_block1a32_PORTADATAOUT_bus [6] $end
$var wire 1 Q" sine_rom_rtl_0|auto_generated|ram_block1a32_PORTADATAOUT_bus [5] $end
$var wire 1 R" sine_rom_rtl_0|auto_generated|ram_block1a32_PORTADATAOUT_bus [4] $end
$var wire 1 S" sine_rom_rtl_0|auto_generated|ram_block1a32_PORTADATAOUT_bus [3] $end
$var wire 1 T" sine_rom_rtl_0|auto_generated|ram_block1a32_PORTADATAOUT_bus [2] $end
$var wire 1 U" sine_rom_rtl_0|auto_generated|ram_block1a32_PORTADATAOUT_bus [1] $end
$var wire 1 V" sine_rom_rtl_0|auto_generated|ram_block1a32_PORTADATAOUT_bus [0] $end
$var wire 1 W" sine_rom_rtl_0|auto_generated|ram_block1a48_PORTADATAOUT_bus [8] $end
$var wire 1 X" sine_rom_rtl_0|auto_generated|ram_block1a48_PORTADATAOUT_bus [7] $end
$var wire 1 Y" sine_rom_rtl_0|auto_generated|ram_block1a48_PORTADATAOUT_bus [6] $end
$var wire 1 Z" sine_rom_rtl_0|auto_generated|ram_block1a48_PORTADATAOUT_bus [5] $end
$var wire 1 [" sine_rom_rtl_0|auto_generated|ram_block1a48_PORTADATAOUT_bus [4] $end
$var wire 1 \" sine_rom_rtl_0|auto_generated|ram_block1a48_PORTADATAOUT_bus [3] $end
$var wire 1 ]" sine_rom_rtl_0|auto_generated|ram_block1a48_PORTADATAOUT_bus [2] $end
$var wire 1 ^" sine_rom_rtl_0|auto_generated|ram_block1a48_PORTADATAOUT_bus [1] $end
$var wire 1 _" sine_rom_rtl_0|auto_generated|ram_block1a48_PORTADATAOUT_bus [0] $end
$var wire 1 `" sine_rom_rtl_0|auto_generated|ram_block1a9_PORTADATAOUT_bus [8] $end
$var wire 1 a" sine_rom_rtl_0|auto_generated|ram_block1a9_PORTADATAOUT_bus [7] $end
$var wire 1 b" sine_rom_rtl_0|auto_generated|ram_block1a9_PORTADATAOUT_bus [6] $end
$var wire 1 c" sine_rom_rtl_0|auto_generated|ram_block1a9_PORTADATAOUT_bus [5] $end
$var wire 1 d" sine_rom_rtl_0|auto_generated|ram_block1a9_PORTADATAOUT_bus [4] $end
$var wire 1 e" sine_rom_rtl_0|auto_generated|ram_block1a9_PORTADATAOUT_bus [3] $end
$var wire 1 f" sine_rom_rtl_0|auto_generated|ram_block1a9_PORTADATAOUT_bus [2] $end
$var wire 1 g" sine_rom_rtl_0|auto_generated|ram_block1a9_PORTADATAOUT_bus [1] $end
$var wire 1 h" sine_rom_rtl_0|auto_generated|ram_block1a9_PORTADATAOUT_bus [0] $end
$var wire 1 i" sine_rom_rtl_0|auto_generated|ram_block1a25_PORTADATAOUT_bus [8] $end
$var wire 1 j" sine_rom_rtl_0|auto_generated|ram_block1a25_PORTADATAOUT_bus [7] $end
$var wire 1 k" sine_rom_rtl_0|auto_generated|ram_block1a25_PORTADATAOUT_bus [6] $end
$var wire 1 l" sine_rom_rtl_0|auto_generated|ram_block1a25_PORTADATAOUT_bus [5] $end
$var wire 1 m" sine_rom_rtl_0|auto_generated|ram_block1a25_PORTADATAOUT_bus [4] $end
$var wire 1 n" sine_rom_rtl_0|auto_generated|ram_block1a25_PORTADATAOUT_bus [3] $end
$var wire 1 o" sine_rom_rtl_0|auto_generated|ram_block1a25_PORTADATAOUT_bus [2] $end
$var wire 1 p" sine_rom_rtl_0|auto_generated|ram_block1a25_PORTADATAOUT_bus [1] $end
$var wire 1 q" sine_rom_rtl_0|auto_generated|ram_block1a25_PORTADATAOUT_bus [0] $end
$var wire 1 r" sine_rom_rtl_0|auto_generated|ram_block1a41_PORTADATAOUT_bus [8] $end
$var wire 1 s" sine_rom_rtl_0|auto_generated|ram_block1a41_PORTADATAOUT_bus [7] $end
$var wire 1 t" sine_rom_rtl_0|auto_generated|ram_block1a41_PORTADATAOUT_bus [6] $end
$var wire 1 u" sine_rom_rtl_0|auto_generated|ram_block1a41_PORTADATAOUT_bus [5] $end
$var wire 1 v" sine_rom_rtl_0|auto_generated|ram_block1a41_PORTADATAOUT_bus [4] $end
$var wire 1 w" sine_rom_rtl_0|auto_generated|ram_block1a41_PORTADATAOUT_bus [3] $end
$var wire 1 x" sine_rom_rtl_0|auto_generated|ram_block1a41_PORTADATAOUT_bus [2] $end
$var wire 1 y" sine_rom_rtl_0|auto_generated|ram_block1a41_PORTADATAOUT_bus [1] $end
$var wire 1 z" sine_rom_rtl_0|auto_generated|ram_block1a41_PORTADATAOUT_bus [0] $end
$var wire 1 {" sine_rom_rtl_0|auto_generated|ram_block1a57_PORTADATAOUT_bus [8] $end
$var wire 1 |" sine_rom_rtl_0|auto_generated|ram_block1a57_PORTADATAOUT_bus [7] $end
$var wire 1 }" sine_rom_rtl_0|auto_generated|ram_block1a57_PORTADATAOUT_bus [6] $end
$var wire 1 ~" sine_rom_rtl_0|auto_generated|ram_block1a57_PORTADATAOUT_bus [5] $end
$var wire 1 !# sine_rom_rtl_0|auto_generated|ram_block1a57_PORTADATAOUT_bus [4] $end
$var wire 1 "# sine_rom_rtl_0|auto_generated|ram_block1a57_PORTADATAOUT_bus [3] $end
$var wire 1 ## sine_rom_rtl_0|auto_generated|ram_block1a57_PORTADATAOUT_bus [2] $end
$var wire 1 $# sine_rom_rtl_0|auto_generated|ram_block1a57_PORTADATAOUT_bus [1] $end
$var wire 1 %# sine_rom_rtl_0|auto_generated|ram_block1a57_PORTADATAOUT_bus [0] $end
$upscope $end
$upscope $end
$enddefinitions $end
#0
$dumpvars
0!
b1111 "
00
0/
0.
0-
0,
0+
0*
0)
0(
0'
0&
0%
0$
0#
01
02
13
x4
15
16
17
08
19
0:
0;
0<
0=
0>
0?
0@
0A
0B
0C
0D
0E
0F
0G
0H
0I
1J
1K
1L
1M
1N
0O
0P
0Q
0R
0S
0T
0U
0V
0W
0X
0Y
0Z
0[
0\
0]
0^
0_
0`
0a
0b
0c
0d
0e
0f
0g
0h
0i
0j
0k
0l
0m
0n
0o
0p
0q
0r
0s
0t
0u
0v
0w
0x
0y
0z
0{
0|
0}
0~
0!!
0"!
0#!
0$!
0%!
0&!
0'!
0(!
0)!
0*!
0+!
0,!
0-!
0.!
0/!
00!
01!
02!
03!
04!
05!
06!
07!
08!
09!
0:!
0;!
0<!
0=!
0>!
0?!
0@!
0A!
0B!
0C!
0D!
0E!
0F!
0G!
0H!
0I!
0J!
0K!
zN!
zM!
1L!
0P!
0O!
zS!
zR!
0Q!
zs!
zr!
zq!
zp!
zo!
zn!
zm!
zl!
zk!
zj!
zi!
zh!
zg!
zf!
ze!
zd!
zc!
zb!
za!
z`!
z_!
z^!
0]!
0\!
0[!
0Z!
0Y!
0X!
0W!
0V!
0U!
0T!
z5"
z4"
z3"
z2"
z1"
z0"
z/"
z."
z-"
z,"
z+"
z*"
z)"
z("
z'"
z&"
z%"
z$"
z#"
z""
z!"
z~!
0}!
0|!
0{!
0z!
zy!
zx!
zw!
zv!
zu!
zt!
z8"
z7"
06"
z;"
z:"
09"
0D"
0C"
0B"
0A"
0@"
0?"
0>"
0="
0<"
0M"
0L"
0K"
0J"
0I"
0H"
0G"
0F"
0E"
0V"
0U"
0T"
0S"
0R"
0Q"
0P"
0O"
0N"
0_"
0^"
0]"
0\"
0["
0Z"
0Y"
0X"
0W"
0h"
0g"
0f"
0e"
0d"
0c"
0b"
0a"
0`"
0q"
0p"
0o"
0n"
0m"
0l"
0k"
0j"
0i"
0z"
0y"
0x"
0w"
0v"
0u"
0t"
0s"
0r"
0%#
0$#
0##
0"#
0!#
0~"
0}"
0|"
0{"
$end
#10000
1!
1H
1I
09
18
11
1}!
1|!
1{!
1z!
1O
1U
1S
1Q
#10001
1h"
1g"
1f"
1e"
1D"
1C"
1B"
1A"
1@"
1?"
1>"
1="
1<"
1.!
1*!
1$!
1!!
1y
1t
1o
1j
1g
1E!
1@!
1;!
16!
17!
1<!
1A!
1F!
1h
1m
1r
1w
1|
1#!
1(!
1-!
12!
1C
1D
1E
1F
1:
1;
1<
1=
1>
1?
1@
1A
1B
1(
1)
1*
1+
1,
1-
1.
1/
10
1$
1%
1&
1'
#20000
0!
0H
0I
19
08
01
#30000
1!
1H
1I
09
18
11
1Z!
1[!
1\!
1]!
1P
0O
1R
1T
1V
0Q
0S
0U
1Q
1S
1U
1W
#40000
0!
0H
0I
19
08
01
#50000
1!
1H
1I
09
18
11
1Y!
0]!
0P
1O
1X
0W
0Q
1Y
#50001
0g"
0f"
0e"
1d"
0D"
0C"
0B"
0A"
0<"
0.!
0t
0o
0j
0g
1J!
0E!
0@!
0;!
0<!
0A!
0F!
1K!
0h
0m
0r
0w
02!
0D
0E
0F
1G
0:
0;
0<
0=
0B
0(
0-
0.
0/
00
1#
0$
0%
0&
#60000
0!
0H
0I
19
08
01
#70000
1!
1H
1I
09
18
11
1X!
0Y!
0\!
1]!
1P
0O
0R
0X
1Z
1Q
1W
0Y
1R
0Z
0Q
0S
1Y
1[
1S
0[
#70001
0h"
1g"
1D"
1C"
1A"
0?"
1<"
1.!
0!!
1t
1j
1g
1;!
06!
07!
1<!
1h
1m
1w
0#!
12!
0C
1D
1:
1;
1=
0?
1B
1(
0+
1-
1/
10
1&
0'
#80000
0!
0H
0I
19
08
01
#90000
1!
1H
1I
09
18
11
1Y!
0]!
0P
1O
1X
0W
0R
1Z
1Q
0Y
0S
1[
#90001
0g"
1f"
0C"
1?"
0>"
0<"
0.!
0$!
1!!
0j
1@!
0;!
0<!
1A!
0m
1#!
0(!
02!
0D
1E
0;
1?
0@
0B
0(
0*
1+
0/
1%
0&
#100000
0!
0H
0I
19
08
01
#110000
1!
1H
1I
09
18
11
1W!
0X!
0Y!
0[!
1\!
1]!
1P
0O
1R
0T
0X
0Z
1\
0Q
1S
1W
1Y
0[
1T
0\
1Q
0S
0U
0Y
1[
1]
1U
0]
#110001
1h"
0D"
1B"
0A"
0@"
0?"
1<"
1.!
0!!
0y
0t
1o
0g
16!
17!
0h
1r
0w
0|
0#!
12!
1C
0:
1<
0=
0>
0?
1B
1(
0+
0,
0-
1.
00
1'
#120000
0!
0H
0I
19
08
01
#130000
1!
1H
1I
09
18
11
1Y!
0]!
0P
1O
1X
0W
0Q
1Y
#130001
1g"
1C"
1@"
1?"
0="
0<"
0.!
0*!
1!!
1y
1j
1;!
1<!
1m
1|
1#!
0-!
02!
1D
1;
1>
1?
0A
0B
0(
0)
1+
1,
1/
1&
#140000
0!
0H
0I
19
08
01
#150000
1!
1H
1I
09
18
11
1X!
0Y!
0\!
1]!
1P
0O
0R
0X
1Z
1Q
1W
0Y
1R
0T
0Z
1\
0Q
1S
1Y
0[
1T
0\
0S
0U
1[
1]
1U
0]
#150001
0h"
0g"
0f"
1e"
1D"
0C"
0B"
1A"
0@"
0?"
1>"
1="
1*!
1$!
0!!
0y
1t
0o
0j
1g
1E!
0@!
0;!
06!
07!
0<!
0A!
1F!
1h
0m
0r
1w
0|
0#!
1(!
1-!
0C
0D
0E
1F
1:
0;
0<
1=
0>
0?
1@
1A
1)
1*
0+
0,
1-
0.
0/
10
1$
0%
0&
0'
#160000
0!
0H
0I
19
08
01
#170000
1!
1H
1I
09
18
11
1Y!
0]!
0P
1O
1X
0W
0R
1Z
1Q
0Y
0T
1\
1S
0[
0U
1]
#170001
1h"
0D"
1@"
1?"
0>"
0="
1<"
1.!
0*!
0$!
1!!
1y
0g
16!
17!
0h
1|
1#!
0(!
0-!
12!
1C
0:
1>
1?
0@
0A
1B
1(
0)
0*
1+
1,
00
1'
#180000
0!
0H
0I
19
08
01
#190000
1!
1H
1I
09
18
11
1V!
0W!
0X!
0Y!
0Z!
1[!
1\!
1]!
1P
0O
1R
1T
0V
0X
0Z
0\
1^
0Q
0S
1U
1W
1Y
1[
0]
1V
0^
1Q
1S
0U
0W
0Y
0[
1]
1_
1W
0_
#190001
0h"
1g"
1D"
1B"
1>"
1$!
1o
1g
1;!
06!
07!
1<!
1h
1r
1(!
0C
1D
1:
1<
1@
1*
1.
10
1&
0'
#200000
0!
0H
0I
19
08
01
#210000
1!
1H
1I
09
18
11
1Y!
0]!
0P
1O
1X
0W
0Q
1Y
#210001
1h"
0D"
0A"
0?"
0>"
1="
1*!
0$!
0!!
0t
0g
16!
17!
0h
0w
0#!
0(!
1-!
1C
0:
0=
0?
0@
1A
1)
0*
0+
0-
00
1'
#220000
0!
0H
0I
19
08
01
#230000
1!
1H
1I
09
18
11
1X!
0Y!
0\!
1]!
1P
0O
0R
0X
1Z
1Q
1W
0Y
1R
0Z
0Q
0S
1Y
1[
1S
0[
#230001
0h"
0g"
1f"
1D"
1C"
1?"
1>"
0="
0*!
1$!
1!!
1j
1g
1@!
0;!
06!
07!
0<!
1A!
1h
1m
1#!
1(!
0-!
0C
0D
1E
1:
1;
1?
1@
0A
0)
1*
1+
1/
10
1%
0&
0'
#240000
0!
0H
0I
19
08
01
#250000
1!
1H
1I
09
18
11
1Y!
0]!
0P
1O
1X
0W
0R
1Z
1Q
0Y
0S
1[
#250001
1h"
0B"
0@"
0>"
0$!
0y
0o
16!
17!
0r
0|
0(!
1C
0<
0>
0@
0*
0,
0.
1'
#260000
0!
0H
0I
19
08
01
#270000
1!
1H
1I
09
18
11
1W!
0X!
0Y!
0[!
1\!
1]!
1P
0O
1R
0T
0X
0Z
1\
0Q
1S
1W
1Y
0[
1T
0V
0\
1^
1Q
0S
1U
0Y
1[
0]
1V
0^
0U
0W
1]
1_
1W
0_
#270001
0h"
1g"
0C"
1B"
1@"
0?"
1="
0<"
0.!
1*!
0!!
1y
1o
0j
1;!
06!
07!
1<!
0m
1r
1|
0#!
1-!
02!
0C
1D
0;
1<
1>
0?
1A
0B
0(
1)
0+
1,
1.
0/
1&
0'
#280000
0!
0H
0I
19
08
01
#290000
1!
1H
1I
09
18
11
1Y!
0]!
0P
1O
1X
0W
0Q
1Y
#290001
0D"
0B"
1A"
0@"
1>"
1<"
1.!
1$!
0y
1t
0o
0g
0h
0r
1w
0|
1(!
12!
0:
0<
1=
0>
1@
1B
1(
1*
0,
1-
0.
00
#300000
0!
0H
0I
19
08
01
#310000
1!
1H
1I
09
18
11
1X!
0Y!
0\!
1]!
1P
0O
0R
0X
1Z
1Q
1W
0Y
1R
0T
0Z
1\
0Q
1S
1Y
0[
1T
0V
0\
1^
0S
1U
1[
0]
1V
0^
0U
0W
1]
1_
1W
0_
#310001
1h"
1D"
1C"
1@"
1?"
0>"
0<"
0.!
0$!
1!!
1y
1j
1g
16!
17!
1h
1m
1|
1#!
0(!
02!
1C
1:
1;
1>
1?
0@
0B
0(
0*
1+
1,
1/
10
1'
#320000
0!
0H
0I
19
08
01
#330000
1!
1H
1I
09
18
11
1Y!
0]!
0P
1O
1X
0W
0R
1Z
1Q
0Y
0T
1\
1S
0[
0V
1^
1U
0]
0X
1W
1_
0Z
1Y
0\
1[
0^
1]
0_
